{
  "sites": [   
    {
      "key": "csp_CZSPP",
      "name": "厂长资源(SP)",
      "type": 3,
      "api": "csp_CZSPP",
      "searchable": 1,
      "quickSearch": 1,
      "filterable": 1
    },
    {"key": "csp_Kmys",
     "name":"酷猫(SP)",
     "type": 3,
     "api": "csp_Kmys",
     "searchable": 1,
     "quickSearch": 1,
     "filterable": 1
    },
    {
      "key": "Lib",
      "name": "Libvio(SP)",
      "type": 3,
      "api": "csp_Lib",
      "searchable": 1,
      "quickSearch": 1,
      "filterable": 1
    },
    {
      "key": "七七",
      "name": "七七(SP)",
      "type": 3,
      "api": "csp_Kunyu77",
      "searchable": 1,
      "quickSearch": 1,
      "filterable": 1
    },
    {
      "key": "BBB",
      "name": "B站套餐",
      "type": 3,
      "api": "csp_BBB",
      "searchable": 0,
      "quickSearch": 0,
      "filterable": 1
    },
   {
      "key": "Cokemv",
      "name": "Cokemv(SP)",
      "type": 3,
      "api": "csp_Cokemv",
      "searchable": 1,
      "quickSearch": 1,
      "filterable": 1
    },
    {
      "key": "zxzj",
      "name": "在线之家(SP)",
      "type": 3,
      "api": "csp_Zxzj",
      "searchable": 1,
      "quickSearch": 1,
      "filterable": 1
    },
    {
      "key": "360",
      "name": "360官源",
      "type": 3,
      "api": "csp_SP360",
      "searchable": 1,
      "quickSearch": 1,
      "filterable": 1
    },
    {
      "key": "小苹果",
      "name": "小苹果(SP)",
      "type": 3,
      "api": "csp_LiteApple",
      "searchable": 1,
      "quickSearch": 1,
      "filterable": 1
    },
{"key": "csp_Blixs","name":"相声小品","type": 3,"api": "csp_Blixs","searchable": 0,"quickSearch": 0,"filterable": 1},
{"key": "csp_Bliyc","name":"演唱会","type": 3,"api": "csp_Bliyc","searchable": 0,"quickSearch": 0,"filterable": 1},
{"key": "csp_Blidw","name":"动物世界","type": 3,"api": "csp_Blidw","searchable": 0,"quickSearch": 0,"filterable": 1},
{"key": "csp_Blixq","name":"戏曲","type": 3,"api": "csp_Blixq","searchable": 0,"quickSearch": 0,"filterable": 1},
    {
      "key": "csp_xpath_A33",
      "name": "MTV🎸",
      "type": 3,
      "api": "csp_XPath",
      "searchable": 1,
      "quickSearch": 0,
      "filterable": 1,
      "ext": "https://rivergod.coding.net/p/river/d/r/git/raw/master/XP/mtv.json"
    },
    {"key": "csp_Auete",
     "name":"Auete(SP)",
     "type": 3,"api":"csp_Auete",
     "searchable":1,
     "quickSearch":1,
     "filterable":1
    },
    {
      "key": "Kuaikan",
      "name": "快看(SP)",
      "type": 3,
      "api": "csp_Kuaikan",
      "searchable": 1,
      "quickSearch": 1,
      "filterable": 1
    },
    {"key":"spider_IKan",
     "name":"爱看(SP)",
     "type":3,"api":"csp_IKan",
     "quickSearch":1,"searchable":1,
     "filterable":1
    },
    {"key": "csp_Bttoo","name":"BTToo(SP)","type": 3,"api": "csp_Bttoo","searchable": 1,"quickSearch": 1,"filterable": 1},
    {"key":"csp_Tkys","name":"天空影视(SP)","type":3,"api":"csp_Tkys","searchable":1,"quickSearch":1,"filterable":1},   
    {"key": "csp_xpath_88kanqiu",
     "name": "球赛直播","type": 3,
     "api": "csp_XPath",
     "searchable": 0,
     "quickSearch": 0,
     "filterable": 0,
     "ext": "https://rivergod.coding.net/p/river/d/r/git/raw/master/XP/88kanqiu.json"
    },
    {
      "key": "csp_biubiu_LIBVIO",
      "name": "LIBVIO(XB)",
      "type": 3,
      "api": "csp_XBiubiu",
      "searchable": 1,
      "quickSearch": 1,
      "filterable": 0,
      "ext": "https://rivergod.coding.net/p/river/d/r/git/raw/master/XB/LIBVIO.json"
    },
    {
      "key": "csp_DY1990",
      "name": "1990(SP)",
      "type": 3,
      "api": "csp_DY1990",
      "searchable": 1,
      "quickSearch": 1,
      "filterable": 0
    },
    {
      "key": "csp_biubiu_555",
      "name": "555影院(XB)",
      "type": 3,
      "api": "csp_XBiubiu",
      "searchable": 1,
      "quickSearch": 1,
      "filterable": 0,
      "ext": "https://rivergod.coding.net/p/river/d/r/git/raw/master/XB/555电影.json"
    },
    {
      "key": "csp_biubiu_lezhu",
      "name": "乐猪影视(XB)",
      "type": 3,
      "api": "csp_XBiubiu",
      "searchable": 1,
      "quickSearch": 1,
      "filterable": 0,
      "ext": "https://rivergod.coding.net/p/river/d/r/git/raw/master/XB/乐猪影视.json"
    },
    {
      "key": "csp_biubiu_ysgc",
      "name": "影视工厂(XB)",
      "type": 3,
      "api": "csp_XBiubiu",
      "searchable": 1,
      "quickSearch": 1,
      "filterable": 0,
      "ext": "https://rivergod.coding.net/p/river/d/r/git/raw/master/XB/影视工厂.json"
    },   
    {
      "key": "csp_xpath_yanet",
      "name": "鸭奈飞(XP)",
      "type": 3,
      "api": "csp_XPathFilter",
      "searchable": 1,
      "quickSearch": 1,
      "filterable": 1,
      "ext": "https://rivergod.coding.net/p/river/d/r/git/raw/master/XP/yanet.json"
    },
    {
      "key": "csp_xpath_lezhutv",
      "name": "乐猪TV(XP)",
      "type": 3,
      "api": "csp_XPathMac",
      "searchable": 1,
      "quickSearch": 1,
      "filterable": 0,
      "ext": "https://rivergod.coding.net/p/river/d/r/git/raw/master/XP/lezhutv.json"
    },
   {
      "key": "csp_xpath_dadagui",
      "name": "达达龟(XP)",
      "type": 3,
      "api": "csp_XPathFilter",
      "searchable": 1,
      "quickSearch": 1,
      "filterable": 1,
      "ext": "https://rivergod.coding.net/p/river/d/r/git/raw/master/XP/dadagui.json"
    },
    {
      "key": "csp_GitCafe",
      "name": "小纸条",
      "type": 3,
      "api": "csp_GitCafe",
      "searchable": 1,
      "quickSearch": 1,
      "filterable": 1
    },
    {
      "key": "csp_AliPanSou",
      "name": "哩猫盘搜(只支持搜索)",
      "type": 3,
      "api": "csp_AliPanSou",
      "searchable": 1,
      "quickSearch": 1,
      "filterable": 0
    },
    {
      "key": "push_agent",
      "name": "推送",
      "type": 3,
      "api": "csp_PushAgent",
      "searchable": 0,
      "quickSearch": 0,
      "filterable": 0
    }
],


  "lives":[
    {"group":"redirect","channels":[
      {"name":"redirect","urls":[


        "proxy://do=live&type=txt&ext=aHR0cHM6Ly9naXRsYWIuY29tL3JpdmVyZ29kNTIwL3JpdmVyLy0vcmF3L21haW4vbGl2ZS9saXZl"


      ]}]}],

"parses":[
{"name":"解析聚合","type":3,"url":"Demo"},
{"name":"Json并发","type":2,"url":"Parallel"},
{"name":"Json轮询","type":2,"url":"Sequence"},
{"name":"线路3","type":1,"url":"http://27.124.4.42:4567/jhjson/ceshi.php?url=","ext":{"flag":["qiyi","qq","letv","sohu","youku","mgtv","bilibili","wasu","xigua","1905"]}},
{"name":"线路5","type":1,"url":"https://jx.hfyrw.com/mao.go?url="},
{"name":"线路6","type":1,"url":"http://jiexi.mmhkj.xyz/home/api?type=ys&uid=4187535&key=enpstuBEJKLNPUXZ19&url="},
{"name":"线路7","type":1,"url":"https://app.okmedcos.com/4k/?url="},
{"name":"线路8","type":0,"url":"https://app.okmedcos.com/4k/?url=","ext":{"flag":["CL4K","qq","腾讯","pptv","PPTV"]}},
{"name":"线路9","type":1,"url":"https://jie.1z1.cc/api/?key=HdMmTMfyf1uTOQUL0b&url="},
{"name":"线路m9","type":1,"url":"https://good-vip.mmiyue.com/zhenbuka2/api/svip/HaShrcJUHwtH7TDdgUzHaWvJ1lWUZWiK.php?url="},
{"name":"线路NX","type":1,"url":"https://play.fuqizhishi.com/maotv/API.php?appkey=QQ172598364&url="},
{"name":"左岸3","type":1,"url":"http://110.42.2.115:880/analysis/json/?uid=2100&my=fgjnoqstLMRUZ03489&url=","ext":{"flag":["qq","qiyi","mgtv","youku","letv","sohu","xigua","1905"]}},
{"name":"293","type":1,"url":"http://110.42.2.115:880/analysis/json/?uid=2100&my=fgjnoqstLMRUZ03489&url=","ext":{"flag":["qq","qiyi","mgtv","youku","letv","sohu","xigua","1905"],"header":{"User-Agent":"Dart/2.14 (dart:io)"}}},
{"name": "Web解析","type": 0,"url": "https://chaxun.truechat365.com/?url=","ext": {"flag": ["youku","优酷","mgtv","芒果","qq","腾讯","qiyi","爱奇艺","qq","奇艺"]}},
{"name":"Pro","type": 1,"url": "http://api.vip123kan.vip/?url=","ext": {"flag": ["youku","优酷","mgtv","芒果","qq","腾讯","qiyi","爱奇艺","qq","奇艺"]}},
{"name":"parwix1","type":1,"url": "https://jx.parwix.com:4433/player/?url=","ext":{"flag":["qq","腾讯","qiyi","爱奇艺","奇艺","youku","优酷","mgtv","芒果","letv","乐视","pptv","PPTV","sohu","bilibili","哔哩哔哩","哔哩"]}},
{"name":"parwix2","type":1,"url": "https://jx.parwix.com:4433/player/analysis.php?v=","ext":{"flag":["qq","腾讯","qiyi","爱奇艺","奇艺","youku","优酷","mgtv","芒果","letv","乐视","pptv","PPTV","sohu","bilibili","哔哩哔哩","哔哩"]}},
{"name":"parwix3","type": 1,"url": "https://api.parwix.com:4433/analysis/json/?uid=1735&my=cejkmnuvyBEFINR056&url="},
{"name":"解析04","type": 1,"url": "http://jf.tcspvip.com:246/home/api?type=ys&uid=65404&key=bjoprtvyABGIMPXZ27&url="},
{"name":"播放呀","type": 1,"url": "https://jx.vk95.com/xx/?url="},
{"name":"剧好看","type": 1,"url": "https://www.mtosz.com/m3u8.php?url="},
{"name":"想看资源","type": 1,"url": "https://lyw28.com/m3u8/?url="},
{"name":"bilibili","type":1,"url":"https://vip.23at.cn/home/api?type=ys&uid=4883852&key=adfimsvxzDKNOVX389&url=","ext":{	"flag":["bilibili"]}},
{"name":"leduo","type":1,"url":"https://api.ldjx.cc/wp-api/getvodurl.php?token=1001&vid=","ext":{"flag":["leduo"]}},
{"name":"duoduozy2","type":1,"url":"https://a.dxzj88.com/jxjx/dd.php?url=","ext":{"flag":["duoduozy"]}},
{"name":"renrenmi1","type":1,"url":"https://jx.blbo.cc:4433/?url="},
{"name":"renrenmi2","type":1,"url":"https://a.dxzj88.com/jxrrm/jiami.php?url=","ext":{"flag":["rrm3u8"]}},
{"name":"renrenmi3","type":1,"url":"https://sz.dxzj88.com/jxrjrm/jiaomi.php?url=","ext":{"flag":["rrm3u8"]}},
{"name":"Pro2","type":1,"url":"https://vip.rongxingvr.top/api/?type=ys&key=JJEZkZIhzkA4cUtBfR&url=","ext":{"flag":["ltnb","rx","qiyi","爱奇艺","qq","奇艺","sohu","letv","youku","优酷","mgtv","芒果"]}},
{"name":"2","type":1,"url":"https://jx.mczdyw.com/xg.php?url=","ext":{"flag":["mgtv","芒果"]}},
{"name":"3","type":1,"url":"https://www.aiaine.com/api/?key=kVqmG5dAQ5dZTcECw8&url=","ext":{"flag":["youku","优酷","mgtv","芒果","qq","腾讯","qiyi","爱奇艺","qq","奇艺"]}},
{"name":"4","type":1,"url":"https://svip.rongxingvr.top/api/?key=niBgMGXVdCQhsmeEBK&url=","ext":{	"flag":["youku","优酷","mgtv","芒果","qq","腾讯","qiyi","爱奇艺","qq","奇艺"]}},
{"name":"8","type":1,"url":"https://app.iminna.com/jx/?url=","ext":{"flag":["youku","优酷","mgtv","芒果","qq","腾讯","qiyi","爱奇艺","qq","奇艺"]}},
{"name":"初心影视1","type":1,"url":"http://jhpc.manduhu.com/j1217.php?url=","ext":{"flag":["youku","优酷","qq","腾讯","mgtv","芒果"]}},
{"name":"飓风影院2","type":1,"url":"https://vvip.funsline.cn/api/?key=3xWfEoDf4V9p9Y20CR&url=","ext":{"flag":["ziqie","youku","优酷","qiyi","爱奇艺","奇艺","mgtv","芒果","qq","腾讯"]}},
{"name":"我爱电影网","type":1,"url":"https://jhpc.manduhu.com/j1217.php?url=","ext":{"flag":["qiyi","爱奇艺","奇艺","mgtv","芒果","youku","优酷","pptv","PPTV"]}},
{"name":"江湖解析","type":1,"url":"http://103.40.240.46/jh/?url=","ext":{	"flag":["renrenmi","qq","腾讯","youku","优酷","mgtv","芒果","xigua","西瓜"]}},
{"name":"王牌","type":1,"url":"https://za.kuanjv.com/?url=","ext":{"flag":["qq","腾讯","qiyi","爱奇艺","奇艺","youku","优酷","mgtv","芒果","搜狐","sohu","letv","乐视","bilibili","哔哩哔哩","哔哩","xigua","西瓜"]}},
{"name":"我爱电影网","type":1,"url":"https://jhpc.manduhu.com/j1217.php?url=","ext":{"flag":["qq","腾讯","qiyi","爱奇艺","奇艺","youku","优酷","mgtv","芒果","乐视","letv","PPTV","pptv","bilibili","哔哩哔哩","哔哩"]}},
{"name":"欢雨","type":1,"url":"http://www.youhuifuligou.com/json/?id=7&url=","ext":{"flag":["qq","腾讯","qiyi","爱奇艺","奇艺","youku","优酷","letv","乐视","xigua","西瓜"]}},
{"name":"hfyrw","type":1,"url":"https://json.hfyrw.com/mao.go?url=","ext":{"flag":["ltnb","renrenmi"]}},
{"name":"aiaine02","type":1,"url":"https://vip.aiaine.com/api/?key=8FN8gNAySnvJiMllxZ&url=","ext":{"flag":["ltnb","renrenmi","xfyun","miaoparty","miaoparty2","miaoparty3","longteng","xueren"]}},
{"name":"五一解析","type":1,"url":"https://json.5lp.net/json.php?url=","ext":{"flag":["ltnb","renrenmi","rx","rongxing"]}},
{"name":"RongXingVR","type":1,"url":"https://vip.rongxingvr.top/api/?key=JJEZkZIhzkA4cUtBfR&url=","ext":{"flag":["renrenmi","rx","rongxing","mgtv","芒果","bilibili","哔哩哔哩","哔哩"]}},
{"name":"jx165","type":1,"url":"https://ltjx.kuaixiao.vip/home/api?type=ys&uid=506916&key=dlmpwBHIKLMPQRVW23&url=","ext":{"flag":["ltnb"]}},
{"name":"J13","type":1,"url":"https://languangyingshiziyuan.1080zy.top/longtengzy.php/?url=","ext":{"flag":["ltnb"]}},
{"name":"xfyun云","type":1,"url":"https://vip.xfyun.one/home/api?type=ys&uid=2581923&key=ceijpquvBMOSUVXZ23&url=","ext":{"flag":["xfyun"]}},
{"name":"Wuduzy","type":1,"url":"https://aa.xkys.tv/json.php?url=","ext":{"flag":["wuduzy"]}},
{"name":"LTRX","type":1,"url":"https://svip.spchat.top/api/?type=ys&key=bKemW41JnxmQb4l67h&url=","ext":{"flag":["rx"]}},
{"name":"喵派对资源3","type":1,"url":"https://vip.aiaine.com/api/?key=fOWaGgFU45zlIjvbHI&url=","ext":{"flag":["ltnb","renrenmi"]}},
{"name":"喵派对资源2","type":1,"url":"https://svip.iremind.me/api/?key=A5Db8HF8c8FSIOR6R1&url=","ext":{"flag":["renrenmi","qq","腾讯","qiyi","爱奇艺","奇艺","youku","优酷","mgtv","芒果","bilibili","哔哩哔哩","哔哩","sohu"]}},
{"name":"leduotv","type":1,"url":"https://api.leduotv.com/wp-api/getvodurl.php?vid=","ext":{"flag":["leduo"]}},
{"name":"OJBK","type":0,"url":"https://jmwl.qd234.cn/v/?v=","ext":{"flag":["ltnb","renrenmi","rx","xfyun","muxm3u8","xigua","xueren","qq","腾讯","qiyi","爱奇艺","奇艺","youku","优酷","mgtv","芒果","bilibili","哔哩哔哩","哔哩","pptv","PPTV","sohu","letv"]}},
{"name":"M117","type":0,"url":"http://1.117.152.239:39000/?url="},
{"name":"zui","type":0,"url":"https://jx.zui.cm/?url=","ext":{"flag":["ltnb"]}},
{"name":"xuerenweb","type":0,"url":"https://s.2tu.uk/?url=","ext":{"flag":["xueren"]}},
{"name":"xuerenweb2","type":0,"url":"https://xrm3u8.qd234.cn/?url=","ext":{"flag":["xueren"]}},
{"name":"美剧虫","type":0,"url":"https://jx.daiguaji.com/?url=","ext":{"flag":["zijian"]}},
{"name":"miao","type":0,"url":"https://jx.58g8.com/1/?url=","ext":{"flag":["miaoparty"]}},
{"name":"web1","type":0,"url":"https://www.nxflv.com/?url=","ext":{"flag":["youku","优酷","mgtv","芒果","qq","腾讯","qiyi","爱奇艺","qq","奇艺","sohu","letv"]}},
{"name":"万能解析","type":0,"url":"https://vip.legendwhb.cn/m3u8.php?url=","ext":{"flag":["ltnb","renrenmi","qq","腾讯","qiyi","爱奇艺","奇艺","youku","优酷","mgtv","芒果","bilibili","哔哩哔哩","哔哩"]}},
{"name":"ltnb04","type":0,"url":"https://vip.bljiex.com/?v=","ext":{"flag":["ltnb"]}},
{"name":"ltnb02","type":0,"url":"https://jx.zui.cm/?url=","ext":{"flag":["ltnb"]}},
{"name":"CL4K01","type":0,"url":"https://ys.ling00.cn/CL4K/?url=","ext":{"flag":["CL4K","qq","腾讯"]}},
{"name": "解02","type": 1,"url": "https://json.5lp.net/json.php?url="},
{"name": "解03","type": 1,"url": "http://115.231.218.97:1314/api/?key=RwOSJUQyDGtD5K2qJY&url="},
{"name": "解04","type": 1,"url": "https://jhjx.kuanjv.com/newky/?url="},
{"name": "解05","type": 1,"url": "http://ts.yjhan.com:8090/api/?key=Y4GefMCIQJz23mc06R&url="},
{"name": "解06","type": 1,"url": "https://json.hfyrw.com/mao.go?url="},
{"name": "解08","type": 1,"url": "http://47.100.138.210:91/home/api?type=ys&uid=7593435&key=ehortuyAHMNQTWX457&url="},
{"name": "解09","type": 1,"url": "https://jb.vjiangbei.com/home/api?type=ys&uid=281459&key=dhlotwxzABCIJMT189&url="},
{"name": "解10","type": 1,"url": "https://jf.96ym.cn/api/?key=4tuNi0EjxTYFzJIN5r&url="},
{"name": "解11","type": 1,"url": "https://jb.vjiangbei.com/home/api?type=ys&uid=2219260&key=hlmnpqswHIKQRSX146&url="},
{"name": "解12","type": 1,"url": "http://jf.96ym.cn/api/?key=c9bUhQL7YsuL7y8oFz&url="},
{"name": "解13","type": 1,"url": "http://42.157.128.85:880/analysis/json/?uid=2245&my=chorsvzDIKVWX34789&url="},
{"name": "解14","type": 1,"url": "http://23.224.174.74:5577/home/api?type=ys&uid=19722&key=aghknrsvxCDEGNRSUZ&url="},
{"name": "解15","type": 1,"url": "https://jx.7kjx.com/?url="},
{"name": "解16","type": 1,"url": "http://jiexi.kudian6.com/pzjx/zz.php?url="},
{"name": "解17","type": 1,"url": "http://47.100.138.210:91/home/api?type=ys&uid=243653&key=kqswxyABGHKLQSV127&url="},
{"name": "解18","type": 1,"url": "https://xt.gbxy.net.cn/api/?key=7gAmfK5typSVsg2Qnr&url="},
{"name": "解19","type": 1,"url": "https://svip.renrenmi.cc:2222/api/?key=nn4j8rukPXSVzR78E9&url="},
{"name": "解20","type": 1,"url": "https://kuba.renrenmi.cc:2266/api/?key=1PhqM8xRCbmfgwmcE2&url="},
{"name": "解21","type": 1,"url": "http://www.youhuifuligou.com/json/?id=1&url="},
{"name": "解22","type": 1,"url": "https://dd.mouliuk.com/home/api?type=ys&uid=12293&key=acfhkovxzDEIMPWX29&url="},
{"name": "解23","type": 1,"url": "https://vip.byteamone.cn/api/?key=vpO0packXeAp4XYCnA&url="},
{"name": "解24","type": 1,"url": "https://sbsb.i8k.cc/?url="},
{"name": "解25","type": 1,"url": "http://gq.bywdtk.cn/?url="},
{"name": "解26","type": 1,"url": "https://balabala.yatongle.com/api/?key=RuHZpg9zxigiLZRIyl&url="},
{"name": "解27","type": 1,"url": "http://jx.ledu8.cn/api/?key=P8QSgO61p1MpHV2ALn&url="},
{"name": "解28","type": 1,"url": "https://jb.vjiangbei.com/home/api?type=ys&uid=281459&key=cfnoprCDJKLNPQTY34&url="},
{"name": "解29","type": 1,"url": "http://47.100.138.210:91/home/api?type=ys&uid=1947441&key=bcfgjmuwCEORSVX237&url="},
{"name": "解30","type": 1,"url": "http://a.dxzj88.com/jhjson/?url="},
{"name": "解31","type": 1,"url": "https://svip.spchat.top/api/?key=SAl7tLs3Zzu5alSNtz&url="},
{"name": "解32","type": 1,"url": "https://vip.kpjx.cc/api/?key=3sKKYzWSxLmX1hnsMs&url="},
{"name": "解33","type": 1,"url": "http://47.100.138.210:91/home/api?type=ys&uid=1947441&key=bcfgjmuwCEORSVX237&url="},
{"name": "解34","type": 1,"url": "http://jf.jisutuku.top/api/?key=RHjXcjUTkyZnfWx9u4&url="},
{"name": "解35","type": 1,"url": "http://47.100.138.210:91/home/api?type=ys&uid=243653&key=kqswxyABGHKLQSV127&url="},
{"name": "解36","type": 1,"url": "http://42.157.128.85:880/analysis/json/?uid=2245&my=cdnouwxBHLMQSUVWZ1&url="},
{"name": "解37","type": 1,"url": "https://vip.rongxingvr.top/api/?key=JJEZkZIhzkA4cUtBfR&url="},
{"name": "解38","type": 1,"url": "https://jx.zhanlangbu.com/json.php/?url="},
{"name": "解39","type": 1,"url": "https://api.zakkpa.com:8888/analysis/json/?uid=39&my=ehklrtxzAFKLMNUXY2&url="},
{"name": "解40","type": 1,"url": "https://api.zakkpa.com:8888/analysis/json/?uid=39&my=bdfinvyBCDEJKUY089&url="},
{"name": "解41","type": 1,"url": "https://jx.kujiexi.net/m3u8.php?url="},
{"name": "解42","type": 1,"url": "http://jx.ykyunbo.com/m3u8.php?url="},
{"name": "解43","type": 1,"url": "https://player.aibozyplayer.com/m3u8/?url="},
{"name": "解44","type": 1,"url": "https://player.sewozyplayer.com/m3u8/?url="},
{"name": "解45","type": 1,"url": "https://help.siwazywcdn2.com:5278/m3u8.php?url="},
{"name": "解46","type": 1,"url": "https://player.leyuzy.net/?url="},
{"name": "解47","type": 1,"url": "https://api.xiusebf.com/m3u8/?url="},
{"name": "解48","type": 1,"url": "https://mgm3u8-player.com/player/DPm3u8.php?url="},
{"name": "解49","type": 1,"url": "https://player.77lehuo.com/aliplayer/?url="},
{"name": "解50","type": 1,"url": "https://jx.ykyunbo.com/m3u8.php?url="},
{"name": "解51","type": 1,"url": "http://www.ikukk.com/?url="},
{"name": "解52","type": 1,"url": "https://jx.xmflv.com/?url="},
{"name": "解53","type": 1,"url": "https://www.8090g.cn/?url="},
{"name": "解54","type": 1,"url": "http://api.diliktv.xyz/vip/jx.php?url="},
{"name": "解55","type": 1,"url": "https://nbjx.vip/?url="},
{"name": "解56","type": 1,"url": "https://api.okjx.cc:3389/jx.php?url="},
{"name": "解57","type": 1,"url": "https://www.xymav.com/?url="},
{"name": "解58","type": 1,"url": "https://9kjx.com/?url="},
{"name": "解59","type": 1,"url": "https://dp.fqplayer.com/dplayer/?url="},
{"name": "解60","type": 1,"url": "https://jx.blbo.cc:4433/?url="},
{"name": "解61","type": 1,"url": "https://api.iztyy.com/jiexi/?url="},
{"name": "解62","type": 1,"url": "https://www.91jxs.com/jiexi/?url="},
{"name": "解63","type": 1,"url": "http://vip.26db.cn/c/?url="},
{"name": "解64","type": 1,"url": "http://vip.26db.cn/f/?url="},
{"name": "解65","type": 1,"url": "http://vip.26db.cn/a/?url="},
{"name": "解66","type": 1,"url": "http://okjx.cc/?url="},
{"name": "解67","type": 1,"url": "http://jx.xdiaosi.com/?url="},
{"name": "解68","type": 1,"url": "http://jx.rdhk.net/?url="},
{"name": "解69","type": 1,"url": "https://ckmov.ccyjjd.com/ckmov/?url="},
{"name": "解70","type": 1,"url": "https://okjx.cc/?url="},
{"name": "解71","type": 1,"url": "https://www.nxflv.com/?url="},
{"name": "解72","type": 1,"url": "http://gq.bywdtk.cn/?url="},
{"name": "解73","type": 1,"url": "https://api.zakkpa.com:8888/analysis/json/?uid=91&my=gjksuvCHIJLRS01268&url="},
{"name": "解74","type": 1,"url": "http://jx.ledu8.cn/api/?key=P8QSgO61p1MpHV2ALn&url="},
{"name": "解75","type": 1,"url": "https://json.legendwhb.cn/json.php/?url="},
{"name": "解76","type": 1,"url": "http://14.17.115.200:520/json.php?id=6e5LaYyU5JLs9aRawyGKwPkH7ZFr701z&url="},
{"name": "解77","type": 1,"url": "http://newjiexi.gotto.top/yun_apib.php/?url="},
{"name": "解78","type": 1,"url": "http://vipjh.chunbaotaiji.com/?url="},
{"name": "解79","type": 1,"url": "https://jhjx.ptygx.com/xttyjx.php/?url="},
{"name": "解80","type": 1,"url": "https://www.ckplayer.vip/jiexi/?url="},
{"name": "解81","type": 1,"url": "https://vip.laobandq.com/jiexi.php?url="},
{"name": "解84","type": 1,"url": "https://svip.bljiex.cc/?v="},
{"name": "解85","type": 1,"url": "https://www.1717yun.com/api/?url="},
{"name": "解89","type": 1,"url": "https://api.qianqi.net/vip/?url="},
{"name": "解87","type": 1,"url": "https://www.ikukk.com/?url="},
{"name": "解88","type": 1,"url": "https://www.playm3u8.cn/jiexi.php?url="},
{"name": "解89","type": 1,"url": "https://vip.bljiex.com/?v="},
{"name": "解90","type": 1,"url": "https://api.jiexi.la/?url="},
{"name": "解91","type": 1,"url": "https://jx.m3u8.tv/jiexi/?url="},
{"name": "解92","type": 1,"url": "http://47.100.138.210:92/?url="},
{"name": "解93","type": 1,"url": "https://humaosp.com/json.php?url="},
{"name": "解94","type": 1,"url": "https://jx.iztyy.com/svip/?url="},
{"name": "解95","type": 1,"url": "https://660e.com/?url="},
{"name": "解96","type": 1,"url": "https://www.8090.la/8090/?url="},
{"name": "解97","type": 1,"url": "https://jx.daidaitv.top:43810/?url="},
{"name": "解98","type": 1,"url": "https://www.vodjx.top/api/?key=XSQzk8KFK1I7FfPK5X&url="},
{"name": "解99","type": 1,"url": "https://www.vodjx.top/api/?key=XSQzk8KFK1I7FfPK5X&url="},
{"name": "解100","type": 1,"url": "https://z1.m1907.cn/?jx="},
{"name": "解101","type": 1,"url": "https://player.maqq.cn/?url="},
{"name": "解102","type": 1,"url": "https://jx.renrenmi.cc/?url="},
{"name": "解103","type": 1,"url": "https://fast.rongxingvr.cn:8866/api/?key=J4mUIu3DrRtIOojDox&url="},
{"name": "解104","type": 1,"url": "https://fast.rongxingvr.cn:8866/api/?key=jtDZ22biNujOBLlgoe&url="},
{"name": "解105","type": 1,"url": "http://fast.rongxingvr.cn:99/api/?key=M3tZzS2q0oGrQ7aWlr&url="},
{"name": "解106","type": 1,"url": "https://fast.rongxingvr.cn:8866/api/?key=rmxOw7BpINuGIyWQng&url="},
{"name": "解107","type": 1,"url": "https://fast.rongxingvr.cn:8866/api/?key=nrR7koAyq9ajKId4nC&url="},
{"name": "解108","type": 1,"url": "https://supervip.rongxingvr.cn:8866/api/?key=nKn4eO8giUKSe8jxZU&url="},
{"name": "解109","type": 1,"url": "http://m2090.com/?url="},
{"name": "解110","type": 1,"url": "https://api.m3u8.tv:5678/home/api?type=ys&uid=1285201&key=bcikqtwxyADEGKUX36&url="},
{"name": "解111","type": 1,"url": "https://api.m3u8.tv:5678/home/api?type=ys&uid=998036&key=afhlnuvzDJLMOX3689&url="},
{"name": "解112","type": 1,"url": "https://api.m3u8.tv:5678/home/api?type=ys&uid=7743764&key=acgjlopuxACEHJLT48&url="},
{"name": "解113","type": 1,"url": "https://api.m3u8.tv:5678/home/api?type=ys&uid=1095368&key=cdgjpsuDFLNRTUVY03&url="},
{"name": "解114","type": 1,"url": "https://api.m3u8.tv:5678/home/api?type=ys&uid=123503&key=fgkqryzDEFLNQSTW69&url="},
{"name": "解115","type": 1,"url": "https://api.m3u8.tv:5678/home/api?type=ys&uid=7665652&key=dglmnwEFILMOPRW056&url="},
{"name": "解116","type": 1,"url": "https://api.m3u8.tv:5678/home/api?type=ys&uid=1525223&key=fhikpsvBCDFHJOSUZ8&url="},
{"name": "解117","type": 1,"url": "https://api.m3u8.tv:5678/home/api?type=ys&uid=1494542&key=ijmqvwxABEHILMOT48&url="},
{"name": "解118","type": 1,"url": "https://api.m3u8.tv:5678/home/api?type=ys&uid=594615&key=bcehpqtxCEGKMT0248&url="},
{"name": "解119","type":1,"url":"https://api.m3u8.tv:5678/home/api?type=ys&uid=1931000&key=gktuvyzABEORSYZ135&url=","ext":{	"flag":["youku","优酷","qq","腾讯","mgtv","芒果"]}},
{"name": "解120","type":1,"url":"https://api.m3u8.tv:5678/home/api?type=ys&uid=9105801&key=huwxFGILMOQSTUZ679&url=","ext":{"flag":["qq","腾讯","qiyi","爱奇艺","奇艺","youku","优酷","mgtv","芒果"]}},
{"name": "解121","type":1,"url":"https://json.pangujiexi.com:12345/json.php?url=","ext":{"flag":["qq","腾讯","qiyi","爱奇艺","奇艺","youku","优酷","mgtv","芒果"]}},
{"name": "解122","type": 1,"url": "https://www.pangujiexi.com/pangu/?url="}
],
"flags":["youku","qq","iqiyi","qiyi","letv","sohu","tudou","pptv","mgtv","wasu","bilibili","renrenmi","优酷","芒果","腾讯","爱奇艺","奇艺","ltnb","rx","CL4K","xfyun","wuduzy"],

 "ijk":[
    {"group":"软解码","options":[
      {"category":4,"name":"opensles","value":"0"},
      {"category":4,"name":"overlay-format","value":"842225234"},
      {"category":4,"name":"framedrop","value":"1"},
      {"category":4,"name":"soundtouch","value":"1"},
      {"category":4,"name":"start-on-prepared","value":"1"},
      {"category":1,"name":"http-detect-range-support","value":"0"},
      {"category":1,"name":"fflags","value":"fastseek"},
      {"category":2,"name":"skip_loop_filter","value":"48"},
      {"category":4,"name":"reconnect","value":"1"},
      {"category":4,"name":"enable-accurate-seek","value":"0"},
      {"category":4,"name":"mediacodec","value":"0"},
      {"category":4,"name":"mediacodec-auto-rotate","value":"0"},
      {"category":4,"name":"mediacodec-handle-resolution-change","value":"0"},
      {"category":4,"name":"mediacodec-hevc","value":"0"},
      {"category":1,"name":"dns_cache_timeout","value":"600000000"
      }
    ]},
    {"group":"硬解码","options":[
      {"category":4,"name":"opensles","value":"0"},
      {"category":4,"name":"overlay-format","value":"842225234"},
      {"category":4,"name":"framedrop","value":"1"},
      {"category":4,"name":"soundtouch","value":"1"},
      {"category":4,"name":"start-on-prepared","value":"1"},
      {"category":1,"name":"http-detect-range-support","value":"0"},
      {"category":1,"name":"fflags","value":"fastseek"},
      {"category":2,"name":"skip_loop_filter","value":"48"},
      {"category":4,"name":"reconnect","value":"1"},
      {"category":4,"name":"enable-accurate-seek","value":"0"},
      {"category":4,"name":"mediacodec","value":"1"},
      {"category":4,"name":"mediacodec-auto-rotate","value":"1"},
      {"category":4,"name":"mediacodec-handle-resolution-change","value":"1"},
      {"category":4,"name":"mediacodec-hevc","value":"1"},
      {"category":1,"name":"dns_cache_timeout","value":"600000000"
      }
    ]
    }
  ],

  "ads": [
    "mimg.0c1q0l.cn",
    "www.googletagmanager.com",
    "www.google-analytics.com",
    "mc.usihnbcq.cn",
    "mg.g1mm3d.cn",
    "mscs.svaeuzh.cn",
    "cnzz.hhttm.top",
    "tp.vinuxhome.com",
    "cnzz.mmstat.com",
    "www.baihuillq.com",
    "s23.cnzz.com",
    "z3.cnzz.com",
    "c.cnzz.com",
    "stj.v1vo.top",
    "z12.cnzz.com",
    "img.mosflower.cn",
    "tips.gamevvip.com",
    "ehwe.yhdtns.com",
    "xdn.cqqc3.com",
    "www.jixunkyy.cn",
    "sp.chemacid.cn",
    "hm.baidu.com",
    "s9.cnzz.com",
    "z6.cnzz.com",
    "um.cavuc.com",
    "mav.mavuz.com",
    "wofwk.aoidf3.com",
    "z5.cnzz.com",
    "xc.hubeijieshikj.cn",
    "tj.tianwenhu.com",
    "xg.gars57.cn",
    "k.jinxiuzhilv.com",
    "cdn.bootcss.com",
    "ppl.xunzhuo123.com",
    "xomk.jiangjunmh.top",
    "img.xunzhuo123.com",
    "z1.cnzz.com",
    "s13.cnzz.com",
    "xg.huataisangao.cn",
    "z7.cnzz.com",
    "xg.huataisangao.cn",
    "z2.cnzz.com",
    "s96.cnzz.com",
    "q11.cnzz.com",
    "thy.dacedsfa.cn",
    "xg.whsbpw.cn",
    "s19.cnzz.com",
    "z8.cnzz.com",
    "s4.cnzz.com",
    "f5w.as12df.top",
    "ae01.alicdn.com",
    "www.92424.cn",
    "k.wudejia.com",
    "vivovip.mmszxc.top",
    "qiu.xixiqiu.com",
    "cdnjs.hnfenxun.com",
    "cms.qdwght.com"
  ],
  "wallpaper": "https://rivergod.coding.net/p/river/d/r/git/raw/master/wallpaper/jwhwallpaper.jpg",
  "spider": "https://gitlab.com/rivergod520/river/-/raw/main/jar/20220712.jar;md5;5db4308a3b1f2e831806a803fbbc6e9d"
}
