{
  "sites": [   
    {
      "key": "csp_CZSPP",
      "name": "厂长资源(SP)",
      "type": 3,
      "api": "csp_Czsapp",
      "searchable": 1,
      "quickSearch": 1,
      "filterable": 1
    },
    {"key": "csp_Kmys",
     "name":"酷猫(SP)",
     "type": 3,
     "api": "csp_Kmys",
     "searchable": 1,
     "quickSearch": 1,
     "filterable": 1
    },
    {
      "key": "Lib",
      "name": "Libvio(SP)",
      "type": 3,
      "api": "csp_Lib",
      "searchable": 1,
      "quickSearch": 1,
      "filterable": 1
    },
    {
      "key": "七七",
      "name": "七七(SP)",
      "type": 3,
      "api": "csp_Kunyu77",
      "searchable": 1,
      "quickSearch": 1,
      "filterable": 1
    },
    {
      "key": "Bili",
      "name": "B站套餐",
      "type": 3,
      "api": "csp_Bili",
      "searchable": 0,
      "quickSearch": 0,
      "filterable": 1,
      "ext": "https://rivergod.coding.net/p/river/d/r/git/raw/master/XP/bili.json"
    },
    {
      "key": "360",
      "name": "360官源",
      "type": 3,
      "api": "csp_SP360",
      "searchable": 1,
      "quickSearch": 1,
      "filterable": 1
    },
    {
      "key": "Cokemv",
      "name": "Cokemv(SP)",
      "type": 3,
      "api": "csp_Cokemv",
      "searchable": 1,
      "quickSearch": 1,
      "filterable": 1
    },
    {
      "key": "小苹果",
      "name": "小苹果(SP)",
      "type": 3,
      "api": "csp_LiteApple",
      "searchable": 1,
      "quickSearch": 1,
      "filterable": 1
    },
    {
      "key": "zxzj",
      "name": "在线之家(SP)",
      "type": 3,
      "api": "csp_Zxzj",
      "searchable": 1,
      "quickSearch": 1,
      "filterable": 1
    },
    {
      "key": "csp_xpath_A33",
      "name": "MTV🎸",
      "type": 3,
      "api": "csp_XPath",
      "searchable": 1,
      "quickSearch": 0,
      "filterable": 1,
      "ext": "https://rivergod.coding.net/p/river/d/r/git/raw/master/XP/mtv.json"
    },
    {"key": "csp_Auete",
     "name":"Auete(SP)",
     "type": 3,"api":"csp_Auete",
     "searchable":1,
     "quickSearch":1,
     "filterable":1
    },
    {
      "key": "Kuaikan",
      "name": "快看(SP)",
      "type": 3,
      "api": "csp_Kuaikan",
      "searchable": 1,
      "quickSearch": 1,
      "filterable": 1
    },
    {"key":"spider_IKan",
     "name":"爱看(SP)",
     "type":3,"api":"csp_IKan",
     "quickSearch":1,"searchable":1,
     "filterable":1
    },
    {
      "key": "9E03",
      "name": "9E03国语",
      "type": 3,
      "api": "csp_AppYsV2",
      "searchable": 1,
      "quickSearch": 1,
      "filterable": 1,
      "ext": "https://vod.9e03.com/lvdou_api.php/v1.vod"
    },
    {"key": "csp_xpath_88kanqiu",
     "name": "球赛直播","type": 3,
     "api": "csp_XPath",
     "searchable": 0,
     "quickSearch": 0,
     "filterable": 0,
     "ext": "https://rivergod.coding.net/p/river/d/r/git/raw/master/XP/88kanqiu.json"
    },
    {
      "key": "csp_biubiu_LIBVIO",
      "name": "LIBVIO(XB)",
      "type": 3,
      "api": "csp_XBiubiu",
      "searchable": 1,
      "quickSearch": 1,
      "filterable": 0,
      "ext": "https://rivergod.coding.net/p/river/d/r/git/raw/master/XB/LIBVIO.json"
    },
    {
      "key": "csp_appysv2_1080PP",
      "name": "1080P(V2)",
      "type": 3,
      "api": "csp_AppYsV2",
      "searchable": 1,
      "quickSearch": 1,
      "filterable": 1,
      "ext": "http://123.250idc.com/mogai_api.php/v1.vod"
    },
    {
      "key": "csp_DY1990",
      "name": "1990(爬虫)",
      "type": 3,
      "api": "csp_DY1990",
      "searchable": 1,
      "quickSearch": 1,
      "filterable": 0
    },
    {
      "key": "csp_biubiu_555",
      "name": "555影院(XB)",
      "type": 3,
      "api": "csp_XBiubiu",
      "searchable": 1,
      "quickSearch": 1,
      "filterable": 0,
      "ext": "https://rivergod.coding.net/p/river/d/r/git/raw/master/XB/555电影.json"
    },
    {
      "key": "csp_biubiu_lezhu",
      "name": "乐猪影视(XB)",
      "type": 3,
      "api": "csp_XBiubiu",
      "searchable": 1,
      "quickSearch": 1,
      "filterable": 0,
      "ext": "https://rivergod.coding.net/p/river/d/r/git/raw/master/XB/乐猪影视.json"
    },
    {
      "key": "csp_biubiu_厂长资源-蓝光",
      "name": "厂长资源(XB)",
      "type": 3,
      "api": "csp_XBiubiu",
      "searchable": 1,
      "quickSearch": 1,
      "filterable": 0,
      "ext": "https://rivergod.coding.net/p/river/d/r/git/raw/master/XB/厂长资源-蓝光.json"
    },
    {
      "key": "csp_biubiu_ysgc",
      "name": "影视工厂(XB)",
      "type": 3,
      "api": "csp_XBiubiu",
      "searchable": 1,
      "quickSearch": 1,
      "filterable": 0,
      "ext": "https://rivergod.coding.net/p/river/d/r/git/raw/master/XB/影视工厂.json"
    },   
    {
      "key": "csp_xpath_lib",
      "name": "LIBVIO(XP)",
      "type": 3,
      "api": "csp_XPathMacFilter",
      "searchable": 1,
      "quickSearch": 1,
      "filterable": 1,
      "ext": "https://rivergod.coding.net/p/river/d/r/git/raw/master/XP/libv.json"
    },
    {
      "key": "Gimy",
      "name": "Gimy(XP)",
      "type": 3,
      "api": "csp_XPathMacFilter",
      "searchable": 1,
      "quickSearch": 1,
      "filterable": 1,
      "ext": "https://github.com/rivergod520/OneClickRun/raw/master/MaooXP/Gimy"
    },
    {
      "key": "Age动漫",
      "name": "Age动漫(XP)",
      "type": 3,
      "api": "csp_XPath",
      "searchable": 1,
      "quickSearch": 1,
      "filterable": 1,
      "ext": "https://github.com/rivergod520/OneClickRun/raw/master/MaooXP/agefans.json"
    },
    {
      "key": "300看世界",
      "name": "300看世界(V2)",
      "type": 3,
      "api": "csp_AppYsV2",
      "searchable": 1,
      "quickSearch": 1,
      "filterable": 1,
      "ext": "https://300ys.xyz/mogai_api.php/v1.vod"
    },
    {
      "key": "美剧虫",
      "name": "美剧虫(V1)",
      "type": 3,
      "api": "csp_AppYs",
      "searchable": 1,
      "quickSearch": 1,
      "filterable": 1,
      "ext": "https://meijuchong.com/api.php/v1.vod"
    },
    {
      "key": "csp_xpath_xqmi",
      "name": "小江影视(XP)",
      "type": 3,
      "api": "csp_XPath",
      "searchable": 1,
      "quickSearch": 1,
      "filterable": 1,
      "ext": "https://rivergod.coding.net/p/river/d/r/git/raw/master/XP/xqmi.json"
    },
   {
      "key": "csp_XPath_32",
      "name": "哔嘀影视(XP)",
      "type": 3,
      "api": "csp_XPathFilter",
      "searchable": 1,
      "quickSearch": 1,
      "filterable": 1,
      "ext": "https://rivergod.coding.net/p/river/d/r/git/raw/master/XP/bidiys.json"
    },
   {
      "key": "csp_xpath_xiandao",
      "name": "小江向导(XP)",
      "type": 3,
      "api": "csp_XPathMacFilter",
      "searchable": 1,
      "quickSearch": 1,
      "filterable": 1,
      "ext": "https://rivergod.coding.net/p/river/d/r/git/raw/master/XP/xiangdao.json"
    },
    {
      "key": "csp_biubiu_骚火电影",
      "name": "骚火电影(XB)",
      "type": 3,
      "api": "csp_XBiubiu",
      "searchable": 1,
      "quickSearch": 1,
      "filterable": 0,
      "ext": "https://rivergod.coding.net/p/river/d/r/git/raw/master/XB/骚火电影.json"
    },
    {
      "key": "csp_biubiu_剧白白",
      "name": "剧白白(XB)",
      "type": 3,
      "api": "csp_XBiubiu",
      "searchable": 1,
      "quickSearch": 1,
      "filterable": 0,
      "ext": "https://rivergod.coding.net/p/river/d/r/git/raw/master/XB/剧白白-蓝光.json"
    },
    {
      "key": "csp_biubiu_花猫TV",
      "name": "花猫TV(XB)",
      "type": 3,
      "api": "csp_XBiubiu",
      "searchable": 1,
      "quickSearch": 1,
      "filterable": 0,
      "ext": "https://rivergod.coding.net/p/river/d/r/git/raw/master/XB/花猫TV.json"
    },
    {
      "key": "csp_xpath_yanet",
      "name": "鸭奈飞(XP)",
      "type": 3,
      "api": "csp_XPathFilter",
      "searchable": 1,
      "quickSearch": 1,
      "filterable": 1,
      "ext": "https://rivergod.coding.net/p/river/d/r/git/raw/master/XP/yanet.json"
    },
    {
      "key": "csp_xpath_aidi",
      "name": "爱迪影视(XP)",
      "type": 3,
      "api": "csp_XPathMac",
      "searchable": 1,
      "quickSearch": 1,
      "filterable": 1,
      "ext": "https://rivergod.coding.net/p/river/d/r/git/raw/master/XP/aidi.json"
    },
    {
      "key": "csp_xpath_dm84",
      "name": "动漫巴士(XP)",
      "type": 3,
      "api": "csp_XPathFilter",
      "searchable": 1,
      "quickSearch": 1,
      "filterable": 0,
      "ext": "https://rivergod.coding.net/p/river/d/r/git/raw/master/XP/dm84.json"
    },
    {
      "key": "Gimy",
      "name": "Gimy(XP)",
      "type": 3,
      "api": "csp_XPathMacFilter",
      "searchable": 1,
      "quickSearch": 1,
      "filterable": 1,
      "ext": "https://rivergod.coding.net/p/river/d/r/git/raw/master/XP/Gimy.json"
    },
    {
      "key": "csp_xpath_lezhutv",
      "name": "乐猪TV(XP)",
      "type": 3,
      "api": "csp_XPathMac",
      "searchable": 1,
      "quickSearch": 1,
      "filterable": 0,
      "ext": "https://rivergod.coding.net/p/river/d/r/git/raw/master/XP/lezhutv.json"
    },
   {
      "key": "csp_xpath_dadagui",
      "name": "达达龟(XP)",
      "type": 3,
      "api": "csp_XPathFilter",
      "searchable": 1,
      "quickSearch": 1,
      "filterable": 1,
      "ext": "https://rivergod.coding.net/p/river/d/r/git/raw/master/XP/dadagui.json"
    },
    {
      "key": "AliPS",
      "name": "盘搜",
      "type": 3,
      "api": "csp_AliPS",
      "searchable": 1,
      "quickSearch": 1,
      "filterable": 1,
      "ext": "27b06d5221a24199b15f2e573d847430"
    },
    {
      "key": "Gitcafe",
      "name": "小纸条",
      "type": 3,
      "api": "csp_Gitcafe",
      "searchable": 1,
      "quickSearch": 1,
      "filterable": 1,
      "ext": "27b06d5221a24199b15f2e573d847430"
    },
    {
      "key": "push_agent",
      "name": "推送",
      "type": 3,
      "api": "csp_PushAgent",
      "searchable": 0,
      "quickSearch": 0,
      "filterable": 0,
      "ext": "27b06d5221a24199b15f2e573d847430"
    }
],


  "lives":[
    {"group":"redirect","channels":[
      {"name":"redirect","urls":[


        "proxy://do=live&type=txt&ext=aHR0cHM6Ly9naXRsYWIuY29tL3JpdmVyZ29kNTIwL3JpdmVyLy0vcmF3L21haW4vbGl2ZS9saXZl"


      ]}]}],

"parses":[
{"name":"解析聚合","type":3,"url":"Demo"},
{"name":"Json并发","type":2,"url":"Parallel"},
{"name":"Json轮询","type":2,"url":"Sequence"},
    {
      "name": "龙虾",
      "type": 1,
      "url": "http://106.55.234.91:4433/?url=",
      "ext": {
        "flag": [
          "qq",
          "qiyi",
          "mgtv",
          "youku",
          "letv",
          "sohu",
          "xigua",
          "1905"
        ],
        "header": {
          "User-Agent": "Dalvik/2.1.0"
        }
      }
    },
    {
      "name": "Web解析",
      "type": 0,
      "url": "https://chaxun.truechat365.com/?url=",
      "ext": {
        "flag": [
          "youku",
          "优酷",
          "mgtv",
          "芒果",
          "qq",
          "腾讯",
          "qiyi",
          "爱奇艺",
          "qq",
          "奇艺"
        ]
      }
    },
{"name":"线路m9","type":1,"url":"https://api.m3u8.tv:5678/home/api?type=ys&uid=1931000&key=gktuvyzABEORSYZ135&url="},
{"name":"线路NX","type":1,"url":"https://vip.nxflv.com/home/api?uid=701203&key=bltuyCEFKLTX013679&url="},
{"name":"线路1","type":1,"url":"http://27.124.4.42:4567/jhjson/ceshi.php?url=","ext":{"flag":["qiyi","qq","letv","sohu","youku","mgtv","bilibili","wasu","xigua","1905"]}},
{"name":"线路2","url": "http://81.71.48.249:4456/jsonc/293shipin.php?url=","type": 1,"i": "77","ext":{"flag":["qiyi","爱奇艺","奇艺","qq","腾讯","youku","优酷","pptv","PPTV","letv","乐视","bilibili","哔哩哔哩","哔哩","mgtv","芒果"]}},
{"name":"线路3","type":1,"url":"http://106.55.234.91:4433/?url=","ext":{"flag":["qiyi","qq","letv","sohu","youku","mgtv","bilibili","wasu","xigua","1905"]}},
{"name": "线路4","type": 1,"url": "http://81.71.48.249:4456/jsonc/longxia.php?url=","ext": {"flag": ["qq","qiyi","mgtv","youku","letv","sohu","xigua","1905"],"header": {"User-Agent": "Dart/2.14 (dart:io)"}}},
{"name": "Pro","type": 1,"url": "http://api.vip123kan.vip/?url=","ext": {"flag": ["youku","优酷","mgtv","芒果","qq","腾讯","qiyi","爱奇艺","qq","奇艺"]}},
{"name": "parwix1","type":1,"url": "https://jx.parwix.com:4433/player/?url=","ext":{"flag":["qq","腾讯","qiyi","爱奇艺","奇艺","youku","优酷","mgtv","芒果","letv","乐视","pptv","PPTV","sohu","bilibili","哔哩哔哩","哔哩"]}},
{"name": "parwix2","type":1,"url": "https://jx.parwix.com:4433/player/analysis.php?v=","ext":{"flag":["qq","腾讯","qiyi","爱奇艺","奇艺","youku","优酷","mgtv","芒果","letv","乐视","pptv","PPTV","sohu","bilibili","哔哩哔哩","哔哩"]}},
{"name": "parwix3","type": 1,"url": "https://api.parwix.com:4433/analysis/json/?uid=1735&my=cejkmnuvyBEFINR056&url="},
{"name": "综合/B站","type": 1,"url": "https://vip.parwix.com:4433/player/?url="},
{"name": "综合线路解析","type": 1,"url": "https://laisoyiba.com/mov/s/?sv=3&url="},
{"name": "纯净/B站","type": 1,"url": "https://z1.m1907.cn/?jx="},
{"name": "高速接口","type": 1,"url": "https://jsap.attakids.com/?url="},
{"name": "OK解析","type": 1,"url": "https://okjx.cc/?url="},
{"name": "OK解析2","type": 1,"url": "https://api.okjx.cc:3389/jx.php?url="},
{"name": "夜幕","type": 1,"url": "https://www.yemu.xyz/?url="},
{"name": "乐多资源","type": 1,"url": "https://api.leduotv.com/wp-api/ifr.php?isDp=1&vid="},
{"name": "爱豆","type": 1,"url": "https://jx.aidouer.net/?url="},
{"name": "虾米","type": 1,"url": "https://jx.xmflv.com/?url="},
{"name": "M3U8.TV","type": 1,"url": "https://jx.m3u8.tv/jiexi/?url="},
{"name": "人人迷","type": 1,"url": "https://jx.blbo.cc:4433/?url="},
{"name": "全民","type": 1,"url": "https://jx.quanmingjiexi.com/?url="},
{"name": "全民2","type": 1,"url": "https://chaxun.truechat365.com/?url="},
{"name": "PPJ蓝光解析","type": 1,"url": "https://bf.ppjbk.cn/?url="},
{"name": "PPJ解析","type": 1,"url": "https://jx.ppjbk.cn/?url="},
{"name": "PPJ弹幕解析2","type": 1,"url": "https://bf.ppjbk.cn/bf/?url="},
{"name": "m2090.","type": 1,"url": "https://m2090.com/?url="},
{"name": "云解析","type": 1,"url": "https://jx.ppflv.com/?url="},
{"name": "天翼解析","type": 1,"url": "https://www.qianyicp.com/vip/vip_g.php?url="},
{"name": "百域","type": 1,"url": "https://jx.618g.com/?url="},
{"name": "大幕","type": 1,"url": "https://jx.52damu.com/dmjx/jiexi.php?url="},
{"name": "RDHK","type": 1,"url": "https://jx.rdhk.net/?v="},
{"name": "淘电影","type": 1,"url": "https://jx.vodjx.top/vip/?url="},
{"name": "维多","type": 1,"url": "https://jx.ivito.cn/?url="},
{"name": "云端","type": 1,"url": "https://sb.5gseo.net/?url="},
{"name": "七哥","type": 1,"url": "https://jx.mmkv.cn/tv.php?url="},
{"name": "冰豆","type": 1,"url": "https://api.qianqi.net/vip/?url="},
{"name": "迪奥","type": 1,"url": "https://123.1dior.cn/?url="},
{"name": "CK","type": 1,"url": "https://www.ckplayer.vip/jiexi/?url="},
{"name": "游艺","type": 1,"url": "https://api.u1o.net/?url="},
{"name": "LE","type": 1,"url": "https://lecurl.cn/?url="},
{"name": "ckmov","type": 1,"url": "https://www.ckmov.vip/api.php?url="},
{"name": "playerjy/B站","type": 1,"url": "https://jx.playerjy.com/?url="},
{"name": "ccyjjd","type": 1,"url": "https://ckmov.ccyjjd.com/ckmov/?url="},
{"name": "爱豆","type": 1,"url": "https://jx.aidouer.net/?url="},
{"name": "诺诺","type": 1,"url": "https://www.ckmov.com/?url="},
{"name": "H8","type": 1,"url": "https://www.h8jx.com/jiexi.php?url="},
{"name": "BL","type": 1,"url": "https://vip.bljiex.com/?v="},
{"name": "解析la","type": 1,"url": "https://api.jiexi.la/?url="},
{"name": "MUTV","type": 1,"url": "https://jiexi.janan.net/jiexi/?url="},
{"name": "MAO","type": 1,"url": "https://www.mtosz.com/m3u8.php?url="},
{"name": "老板","type": 1,"url": "https://vip.laobandq.com/jiexi.php?url="},
{"name": "盘古","type": 1,"url": "https://www.pangujiexi.cc/jiexi.php?url="},
{"name": "盖世","type": 1,"url": "https://www.gai4.com/?url="},
{"name": "小蒋","type": 1,"url": "https://www.kpezp.cn/jlexi.php?url="},
{"name": "YiTV","type": 1,"url": "https://jiexi.us/?url="},
{"name": "星空","type": 1,"url": "http://60jx.com/?url="},
{"name": "0523","type": 1,"url": "https://go.yh0523.cn/y.cy?url="},
{"name": "17云","type": 1,"url": "https://www.1717yun.com/jx/ty.php?url="},
{"name": "4K","type": 1,"url": "https://jx.4kdv.com/?url="},
{"name": "云析","type": 1,"url": "https://jx.yparse.com/index.php?url="},
{"name": "8090","type": 1,"url": "https://www.8090g.cn/?url="},
{"name": "江湖","type": 1,"url": "https://api.jhdyw.vip/?url="},
{"name": "诺讯","type": 1,"url": "https://www.nxflv.com/?url="},
{"name": "PM","type": 1,"url": "https://www.playm3u8.cn/jiexi.php?url="},
{"name": "奇米","type": 1,"url": "https://qimihe.com/?url="},
{"name": "思云","type": 1,"url": "https://jx.ap2p.cn/?url="},
{"name": "听乐","type": 1,"url": "https://jx.dj6u.com/?url="},
{"name": "aijx","type": 1,"url": "https://jiexi.t7g.cn/?url="},
{"name": "52","type": 1,"url": "https://vip.52jiexi.top/?url="},
{"name": "黑米","type": 1,"url": "https://www.myxin.top/jx/api/?url="},
{"name": "豪华啦","type": 1,"url": "https://api.lhh.la/vip/?url="},
{"name": "凉城","type": 1,"url": "https://jx.mw0.cc/?url="},
{"name": "33t","type": 1,"url": "https://www.33tn.cn/?url="},
{"name": "180","type": 1,"url": "https://jx.000180.top/jx/?url="},
{"name": "无名","type": 1,"url": "https://www.administratorw.com/video.php?url="},
{"name": "黑云","type": 1,"url": "https://jiexi.380k.com/?url="},
{"name": "九八","type": 1,"url": "https://jx.youyitv.com/?url="}
],
"flags":["youku","qq","iqiyi","qiyi","letv","sohu","tudou","pptv","mgtv","wasu","bilibili","renrenmi","优酷","芒果","腾讯","爱奇艺","奇艺","ltnb","rx","CL4K","xfyun","wuduzy"],

 "ijk":[
    {"group":"软解码","options":[
      {"category":4,"name":"opensles","value":"0"},
      {"category":4,"name":"overlay-format","value":"842225234"},
      {"category":4,"name":"framedrop","value":"1"},
      {"category":4,"name":"soundtouch","value":"1"},
      {"category":4,"name":"start-on-prepared","value":"1"},
      {"category":1,"name":"http-detect-range-support","value":"0"},
      {"category":1,"name":"fflags","value":"fastseek"},
      {"category":2,"name":"skip_loop_filter","value":"48"},
      {"category":4,"name":"reconnect","value":"1"},
      {"category":4,"name":"enable-accurate-seek","value":"0"},
      {"category":4,"name":"mediacodec","value":"0"},
      {"category":4,"name":"mediacodec-auto-rotate","value":"0"},
      {"category":4,"name":"mediacodec-handle-resolution-change","value":"0"},
      {"category":4,"name":"mediacodec-hevc","value":"0"},
      {"category":1,"name":"dns_cache_timeout","value":"600000000"
      }
    ]},
    {"group":"硬解码","options":[
      {"category":4,"name":"opensles","value":"0"},
      {"category":4,"name":"overlay-format","value":"842225234"},
      {"category":4,"name":"framedrop","value":"1"},
      {"category":4,"name":"soundtouch","value":"1"},
      {"category":4,"name":"start-on-prepared","value":"1"},
      {"category":1,"name":"http-detect-range-support","value":"0"},
      {"category":1,"name":"fflags","value":"fastseek"},
      {"category":2,"name":"skip_loop_filter","value":"48"},
      {"category":4,"name":"reconnect","value":"1"},
      {"category":4,"name":"enable-accurate-seek","value":"0"},
      {"category":4,"name":"mediacodec","value":"1"},
      {"category":4,"name":"mediacodec-auto-rotate","value":"1"},
      {"category":4,"name":"mediacodec-handle-resolution-change","value":"1"},
      {"category":4,"name":"mediacodec-hevc","value":"1"},
      {"category":1,"name":"dns_cache_timeout","value":"600000000"
      }
    ]
    }
  ],

  "ads": [
    "mimg.0c1q0l.cn",
    "www.googletagmanager.com",
    "www.google-analytics.com",
    "mc.usihnbcq.cn",
    "mg.g1mm3d.cn",
    "mscs.svaeuzh.cn",
    "cnzz.hhttm.top",
    "tp.vinuxhome.com",
    "cnzz.mmstat.com",
    "www.baihuillq.com",
    "s23.cnzz.com",
    "z3.cnzz.com",
    "c.cnzz.com",
    "stj.v1vo.top",
    "z12.cnzz.com",
    "img.mosflower.cn",
    "tips.gamevvip.com",
    "ehwe.yhdtns.com",
    "xdn.cqqc3.com",
    "www.jixunkyy.cn",
    "sp.chemacid.cn",
    "hm.baidu.com",
    "s9.cnzz.com",
    "z6.cnzz.com",
    "um.cavuc.com",
    "mav.mavuz.com",
    "wofwk.aoidf3.com",
    "z5.cnzz.com",
    "xc.hubeijieshikj.cn",
    "tj.tianwenhu.com",
    "xg.gars57.cn",
    "k.jinxiuzhilv.com",
    "cdn.bootcss.com",
    "ppl.xunzhuo123.com",
    "xomk.jiangjunmh.top",
    "img.xunzhuo123.com",
    "z1.cnzz.com",
    "s13.cnzz.com",
    "xg.huataisangao.cn",
    "z7.cnzz.com",
    "xg.huataisangao.cn",
    "z2.cnzz.com",
    "s96.cnzz.com",
    "q11.cnzz.com",
    "thy.dacedsfa.cn",
    "xg.whsbpw.cn",
    "s19.cnzz.com",
    "z8.cnzz.com",
    "s4.cnzz.com",
    "f5w.as12df.top",
    "ae01.alicdn.com",
    "www.92424.cn",
    "k.wudejia.com",
    "vivovip.mmszxc.top",
    "qiu.xixiqiu.com",
    "cdnjs.hnfenxun.com",
    "cms.qdwght.com"
  ],
  "wallpaper": "https://rivergod.coding.net/p/river/d/r/git/raw/master/wallpaper/jwhwallpaper.jpg",
  "spider": "https://gitlab.com/rivergod520/river/-/raw/main/jar/jwh4.jar;md5;6fa1249ae7beeb0222a05db1bc58fb26"
}
